Homework9
…
bike_data <- read_csv("https://www4.stat.ncsu.edu/~online/datasets/SeoulBikeData.csv",
                     locale = locale(encoding="latin1"))

Rows: 8760 Columns: 14
── Column specification ────────────────────────────────────────────────────────
Delimiter: ","
chr  (4): Date, Seasons, Holiday, Functioning Day
dbl (10): Rented Bike Count, Hour, Temperature(°C), Humidity(%), Wind speed ...

ℹ Use `spec()` to retrieve the full column specification for this data.
ℹ Specify the column types or set `show_col_types = FALSE` to quiet this message.

bike_data

# A tibble: 8,760 × 14
   Date       `Rented Bike Count`  Hour `Temperature(°C)` `Humidity(%)`
   <chr>                    <dbl> <dbl>             <dbl>         <dbl>
 1 01/12/2017                 254     0              -5.2            37
 2 01/12/2017                 204     1              -5.5            38
 3 01/12/2017                 173     2              -6              39
 4 01/12/2017                 107     3              -6.2            40
 5 01/12/2017                  78     4              -6              36
 6 01/12/2017                 100     5              -6.4            37
 7 01/12/2017                 181     6              -6.6            35
 8 01/12/2017                 460     7              -7.4            38
 9 01/12/2017                 930     8              -7.6            37
10 01/12/2017                 490     9              -6.5            27
# ℹ 8,750 more rows
# ℹ 9 more variables: `Wind speed (m/s)` <dbl>, `Visibility (10m)` <dbl>,
#   `Dew point temperature(°C)` <dbl>, `Solar Radiation (MJ/m2)` <dbl>,
#   `Rainfall(mm)` <dbl>, `Snowfall (cm)` <dbl>, Seasons <chr>, Holiday <chr>,
#   `Functioning Day` <chr>
…
Convert char columns to factors

bike_data <- bike_data |>
  mutate(seasons = factor(seasons,
                          levels = c("Winter", "Spring", "Summer", "Autumn")),
         holiday = as.factor(holiday),
         functioning_day = as.factor(functioning_day))

bike_data

# A tibble: 8,760 × 14
   date       rented_bike_count  hour temperature humidity wind_speed visibility
   <date>                 <dbl> <dbl>       <dbl>    <dbl>      <dbl>      <dbl>
 1 2017-12-01               254     0        -5.2       37        2.2       2000
 2 2017-12-01               204     1        -5.5       38        0.8       2000
 3 2017-12-01               173     2        -6         39        1         2000
 4 2017-12-01               107     3        -6.2       40        0.9       2000
 5 2017-12-01                78     4        -6         36        2.3       2000
 6 2017-12-01               100     5        -6.4       37        1.5       2000
 7 2017-12-01               181     6        -6.6       35        1.3       2000
 8 2017-12-01               460     7        -7.4       38        0.9       2000
 9 2017-12-01               930     8        -7.6       37        1.1       2000
10 2017-12-01               490     9        -6.5       27        0.5       1928
# ℹ 8,750 more rows
# ℹ 7 more variables: dew_point <dbl>, solar_radiation <dbl>, rainfall <dbl>,
#   snowfall <dbl>, seasons <fct>, holiday <fct>, functioning_day <fct>
…
taking the mean of temperature, humidity, wind_speed, visibility, dew_point, solar_radiation

bike_rollup <- bike_data |>
  filter(functioning_day == "Yes") |>
  group_by(date, seasons, holiday) |>
  summarize(across(c(rented_bike_count, rainfall, snowfall), sum),
            across(c(temperature, humidity, wind_speed, visibility, 
                     dew_point, solar_radiation), mean))

`summarise()` has grouped output by 'date', 'seasons'. You can override using
the `.groups` argument.

bike_rollup

# A tibble: 353 × 12
# Groups:   date, seasons [353]
   date       seasons holiday    rented_bike_count rainfall snowfall temperature
   <date>     <fct>   <fct>                  <dbl>    <dbl>    <dbl>       <dbl>
 1 2017-12-01 Winter  No Holiday              9539      0        0       -2.45  
 2 2017-12-02 Winter  No Holiday              8523      0        0        1.32  
 3 2017-12-03 Winter  No Holiday              7222      4        0        4.88  
 4 2017-12-04 Winter  No Holiday              8729      0.1      0       -0.304 
 5 2017-12-05 Winter  No Holiday              8307      0        0       -4.46  
 6 2017-12-06 Winter  No Holiday              6669      1.3      8.6      0.0458
 7 2017-12-07 Winter  No Holiday              8549      0       10.4      1.09  
 8 2017-12-08 Winter  No Holiday              8032      0        0       -3.82  
 9 2017-12-09 Winter  No Holiday              7233      0        0       -0.846 
10 2017-12-10 Winter  No Holiday              3453      4.1     32.5      1.19  
# ℹ 343 more rows
# ℹ 5 more variables: humidity <dbl>, wind_speed <dbl>, visibility <dbl>,
#   dew_point <dbl>, solar_radiation <dbl>
…
# view data to make sure it looks okay
bike_rec_1 |>
  prep(training = bike_train) |>
  bake(bike_train)

# A tibble: 263 × 15
   date       rainfall snowfall temperature humidity wind_speed visibility
   <date>        <dbl>    <dbl>       <dbl>    <dbl>      <dbl>      <dbl>
 1 2018-09-01   -0.304   -0.236       1.08    0.235     -0.888       0.812
 2 2018-09-02   -0.304   -0.236       1.04   -0.215     -0.366       1.13 
 3 2018-09-05   -0.304   -0.236       0.945   0.274      1.40        1.05 
 4 2018-09-07   -0.175   -0.236       0.802  -0.0574     1.35        0.831
 5 2018-09-08   -0.304   -0.236       0.762  -0.611     -0.0794      1.11 
 6 2018-09-09   -0.304   -0.236       0.785  -0.558     -0.844       1.14 
 7 2018-09-10   -0.304   -0.236       0.869  -0.516     -0.263       1.14 
 8 2018-09-11   -0.304   -0.236       0.751  -0.659     -0.418       1.14 
 9 2018-09-12   -0.304   -0.236       0.833  -0.392     -0.690       1.12 
10 2018-09-13   -0.304   -0.236       0.911   0.308     -0.859       1.11 
# ℹ 253 more rows
# ℹ 8 more variables: dew_point <dbl>, solar_radiation <dbl>,
#   rented_bike_count <dbl>, seasons_Spring <dbl>, seasons_Summer <dbl>,
#   seasons_Autumn <dbl>, holiday_No.Holiday <dbl>, part_of_week_Weekend <dbl>
…
bike_rec_2 |>
  prep(training = bike_train) |>
  bake(bike_train)

# A tibble: 263 × 17
   date       rainfall snowfall temperature humidity wind_speed visibility
   <date>        <dbl>    <dbl>       <dbl>    <dbl>      <dbl>      <dbl>
 1 2018-09-01   -0.304   -0.236       1.08    0.235     -0.888       0.812
 2 2018-09-02   -0.304   -0.236       1.04   -0.215     -0.366       1.13 
 3 2018-09-05   -0.304   -0.236       0.945   0.274      1.40        1.05 
 4 2018-09-07   -0.175   -0.236       0.802  -0.0574     1.35        0.831
 5 2018-09-08   -0.304   -0.236       0.762  -0.611     -0.0794      1.11 
 6 2018-09-09   -0.304   -0.236       0.785  -0.558     -0.844       1.14 
 7 2018-09-10   -0.304   -0.236       0.869  -0.516     -0.263       1.14 
 8 2018-09-11   -0.304   -0.236       0.751  -0.659     -0.418       1.14 
 9 2018-09-12   -0.304   -0.236       0.833  -0.392     -0.690       1.12 
10 2018-09-13   -0.304   -0.236       0.911   0.308     -0.859       1.11 
# ℹ 253 more rows
# ℹ 10 more variables: solar_radiation <dbl>, rented_bike_count <dbl>,
#   seasons_Spring <dbl>, seasons_Autumn <dbl>, holiday_No.Holiday <dbl>,
#   part_of_week_Weekend <dbl>, seasons_Spring_x_temperature <dbl>,
#   seasons_Summer_x_temperature <dbl>, seasons_Autumn_x_temperature <dbl>,
#   temperature_x_rainfall <dbl>
…
bike_rec_3 |>
  prep(training = bike_train) |>
  bake(bike_train)

# A tibble: 263 × 25
   date       rented_bike_count seasons_Spring seasons_Autumn holiday_No.Holiday
   <date>                 <dbl>          <dbl>          <dbl>              <dbl>
 1 2018-09-01             26010              0              1                  1
 2 2018-09-02             26881              0              1                  1
 3 2018-09-05             31114              0              1                  1
 4 2018-09-07             30381              0              1                  1
 5 2018-09-08             29813              0              1                  1
 6 2018-09-09             28354              0              1                  1
 7 2018-09-10             30781              0              1                  1
 8 2018-09-11             31694              0              1                  1
 9 2018-09-12             31809              0              1                  1
10 2018-09-13             30991              0              1                  1
# ℹ 253 more rows
# ℹ 20 more variables: part_of_week_Weekend <dbl>,
#   holiday_No.Holiday_x_seasons_Summer <dbl>,
#   seasons_Spring_x_temperature <dbl>, seasons_Autumn_x_temperature <dbl>,
#   temperature_x_rainfall <dbl>, rainfall_poly_1 <dbl>, rainfall_poly_2 <dbl>,
#   snowfall_poly_1 <dbl>, snowfall_poly_2 <dbl>, temperature_poly_1 <dbl>,
#   temperature_poly_2 <dbl>, humidity_poly_1 <dbl>, humidity_poly_2 <dbl>, …
…
Fit model on the test data

# workflow for 2nd model
#lm_fit <- fit(bike_wfl_2, bike_train)

# prediction for bikes rented on the test set
bike_test_res <- bike_wfl_2 |>
  fit(bike_train) |>
  predict(new_data = bike_test)

bike_test_res

# A tibble: 90 × 1
    .pred
    <dbl>
 1  9783.
 2 10129.
 3 10781.
 4  2424.
 5  1746.
 6  1398.
 7 11804.
 8  3347.
 9  6300.
10  4898.
# ℹ 80 more rows
…
Report coefficients

bike_wfl_3 |>
  fit(bike_train) |>
  extract_fit_parsnip() |>
  tidy()

# A tibble: 24 × 5
   term                                estimate std.error statistic  p.value
   <chr>                                  <dbl>     <dbl>     <dbl>    <dbl>
 1 (Intercept)                            6633.     1219.      5.44 1.31e- 7
 2 seasons_Spring                         6560.     1235.      5.31 2.51e- 7
 3 seasons_Autumn                        11758.     1230.      9.56 1.55e-18
 4 holiday_No.Holiday                     2687.     1075.      2.50 1.31e- 2
 5 part_of_week_Weekend                  -2345.      454.     -5.17 4.99e- 7
 6 holiday_No.Holiday_x_seasons_Summer   18716.     2104.      8.89 1.48e-16
 7 seasons_Spring_x_temperature          11759.     1183.      9.94 1.04e-19
 8 seasons_Autumn_x_temperature           7243.     1148.      6.31 1.35e- 9
 9 temperature_x_rainfall                -1387.      762.     -1.82 7.01e- 2
10 rainfall_poly_1                      -25525.    10345.     -2.47 1.43e- 2
# ℹ 14 more rows
…
